[
    {
        "id" : "de.grogra.imp",
        "name" : "IMP",
        "description" : "The IMP plugin adds facilities to display and edit graphs as defined by the Graph project from above. Furthermore, it defines support for images, fonts and some other data types. Finally, it contains a simple implementation of an HTTP server. This is an interesting feature and enables GroIMP models to serve as dynamic content providers for web applications.<br>Additionally, the IMP plugin contains the default application of GroIMP, the GUI. ",
        "helpUrl": "https://gitlab.com/grogra/groimp/",
        "vendor": "de.grogra",
        "mainClass": "",
        "canUninstall":"false",
        "versions" : {
            "2.1.2" : {
                "downloadUrl" : "https://gitlab.com/grogra/groimp/-/package_files/105114277/download",
                "libs" : {
                "jocl.jar" :"https://repo1.maven.org/maven2/org/jocl/jocl/0.1.7/jocl-0.1.7.jar",
                "mysql-connector-java.jar" :"https://repo1.maven.org/maven2/mysql/mysql-connector-java/2.0.14/mysql-connector-java-2.0.14.jar",
                "jai_imageio.jar" :"https://gitlab.com/grogra/misc_libraries/-/package_files/89864157/download"
                },
                "depends" : {
                    "de.grogra.projectmanager":"1.0",
                    "de.grogra.pf":"2.1.2",
                    "de.grogra.pf.ui.swing":"2.1.2",
                    "de.grogra.math":"2.1.2"
                }
            },
            "2.1.3" : {
                "downloadUrl" : "https://gitlab.com/grogra/groimp/-/package_files/122392992/download",
                "libs" : {
                "jocl.jar" :"https://repo1.maven.org/maven2/org/jocl/jocl/2.0.5/jocl-2.0.5.jar",
                "mysql-connector-java.jar" :"https://repo1.maven.org/maven2/mysql/mysql-connector-java/2.0.14/mysql-connector-java-2.0.14.jar",
                "jai_imageio.jar" :"https://gitlab.com/grogra/misc_libraries/-/package_files/89864157/download"
                },
                "depends" : {
                    "de.grogra.projectmanager":"1.0",
                    "de.grogra.pf":"2.1.3",
                    "de.grogra.pf.ui.swing":"2.1.2",
                    "de.grogra.math":"2.1.2"
                }
            },
            "2.1.4" : {
                "downloadUrl" : "https://gitlab.com/grogra/groimp/-/package_files/150233584/download",
                "libs" : {
                "jocl.jar" :"https://repo1.maven.org/maven2/org/jocl/jocl/2.0.5/jocl-2.0.5.jar",
                "mysql-connector-java.jar" :"https://repo1.maven.org/maven2/mysql/mysql-connector-java/2.0.14/mysql-connector-java-2.0.14.jar",
                "jai_imageio.jar" :"https://gitlab.com/grogra/misc_libraries/-/package_files/89864157/download"
                },
                "depends" : {
                    "de.grogra.projectmanager":"1.0",
                    "de.grogra.pf":"2.1.4",
                    "de.grogra.pf.ui.swing":"2.1.4",
                    "de.grogra.math":"2.1.4"
                }
            },
            "2.1.5" : {
                "downloadUrl" : "https://gitlab.com/grogra/groimp/-/package_files/162582207/download",
                "libs" : {
                "jocl.jar" :"https://repo1.maven.org/maven2/org/jocl/jocl/2.0.5/jocl-2.0.5.jar",
                "mysql-connector-java.jar" :"https://repo1.maven.org/maven2/mysql/mysql-connector-java/2.0.14/mysql-connector-java-2.0.14.jar",
                "jai_imageio.jar" :"https://gitlab.com/grogra/misc_libraries/-/package_files/89864157/download"
                },
                "depends" : {
                    "de.grogra.projectmanager":"1.2",
                    "de.grogra.pf":"2.1.5",
                    "de.grogra.pf.ui.swing":"2.1.4",
                    "de.grogra.math":"2.1.5"
                }
            },
            "2.1.6" : {
                "downloadUrl" : "https://gitlab.com/grogra/groimp/-/package_files/175350282/download",
                "libs" : {
                "jocl.jar" :"https://repo1.maven.org/maven2/org/jocl/jocl/2.0.5/jocl-2.0.5.jar",
                "mysql-connector-java.jar" :"https://repo1.maven.org/maven2/mysql/mysql-connector-java/2.0.14/mysql-connector-java-2.0.14.jar",
                "jai_imageio.jar" :"https://gitlab.com/grogra/misc_libraries/-/package_files/89864157/download"
                },
                "depends" : {
                    "de.grogra.projectmanager":"1.3",
                    "de.grogra.pf":"2.1.6",
                    "de.grogra.pf.ui.swing":"2.1.6",
                    "de.grogra.math":"2.1.5"
                }
            }
        }
    }
]

