[
    {
        "id" : "de.grogra.vecmath",
        "name" : "Vecmath",
        "description" : "Vecmath contains an implementation of the javax.vecmath library and an implementation of 3D geometry (primitives, polygon meshes, constructive solid geometry, octree) with the focus on ray-object intersections for the purpose of ray-tracing.",
        "helpUrl": "https://gitlab.com/grogra/groimp/",
        "vendor": "de.grogra",
        "mainClass": "",
        "canUninstall":"false",
        "versions" : {
            "2.1.2" : {
                "downloadUrl" : "https://gitlab.com/grogra/groimp/-/package_files/105114185/download",
                "libs" : {
                },
                "depends" : {}
            },
            "2.1.3" : {
                "downloadUrl" : "https://gitlab.com/grogra/groimp/-/package_files/122392939/download",
                "libs" : {
                },
                "depends" : {}
            },
            "2.1.4" : {
                "downloadUrl" : "https://gitlab.com/grogra/groimp/-/package_files/150233525/download",
                "libs" : {
                },
                "depends" : {}
            },
            "2.1.5" : {
                "downloadUrl" : "https://gitlab.com/grogra/groimp/-/package_files/162581908/download",
                "libs" : {
                },
                "depends" : {}
            },
            "2.1.6" : {
                "downloadUrl" : "https://gitlab.com/grogra/groimp/-/package_files/175350195/download",
                "libs" : {
                },
                "depends" : {}
            }
        }
    }
]

