[
    {
        "id" : "de.grogra.math",
        "name" : "Math",
        "description" : "Math defines interfaces and implementations for simple functions, vertex lists, B-spline curves and surfaces. This includes non-uniform rational B-splines, i. e., NURBS. A lot of algorithms of _The NURBS book [L. Piegl and W. Tiller.]_ like the computation of swept surfaces are also provided.",
        "helpUrl": "https://gitlab.com/grogra/groimp/",
        "vendor": "de.grogra",
        "mainClass": "",
        "versions" : {
            "2.1.2" : {
                "downloadUrl" : "https://gitlab.com/grogra/groimp/-/package_files/105114203/download",
                "libs" : {
                },
                "depends" : {
                    "de.grogra.vecmath":"2.1.2",
                    "de.grogra.pf":"2.1.2"
                }
            },
            "2.1.3" : {
                "downloadUrl" : "https://gitlab.com/grogra/groimp/-/package_files/122392951/download",
                "libs" : {
                },
                "depends" : {
                    "de.grogra.vecmath":"2.1.2",
                    "de.grogra.pf":"2.1.3"
                }
            },
            "2.1.4" : {
                "downloadUrl" : "https://gitlab.com/grogra/groimp/-/package_files/150233545/download",
                "libs" : {
                },
                "depends" : {
                    "de.grogra.vecmath":"2.1.4",
                    "de.grogra.pf":"2.1.4"
                }
            },
            "2.1.5" : {
                "downloadUrl" : "https://gitlab.com/grogra/groimp/-/package_files/162582006/download",
                "libs" : {
                },
                "depends" : {
                    "de.grogra.vecmath":"2.1.5",
                    "de.grogra.pf":"2.1.5"
                }
            },
            "2.1.6" : {
                "downloadUrl" : "https://gitlab.com/grogra/groimp/-/package_files/175350211/download",
                "libs" : {
                },
                "depends" : {
                    "de.grogra.vecmath":"2.1.5",
                    "de.grogra.pf":"2.1.5"
                }
            }
        }
    }
]

