[
    {
        "id" : "de.grogra.pf.ui.swing",
        "name" : "Platform-Swing",
        "description" : "Platform-Swing implements the user interface for the standard Swing toolkit.",
        "helpUrl": "https://gitlab.com/grogra/groimp/",
        "vendor": "de.grogra",
        "mainClass": "",
        "canUninstall":"false",
        "versions" : {
            "2.1.2" : {
                "downloadUrl" : "https://gitlab.com/grogra/groimp/-/package_files/105114233/download",
                "libs" : {
                },
                "depends" : {
                    "de.grogra.pf":"2.1.2"
                }
            },
            "2.1.3" : {
                "downloadUrl" : "https://gitlab.com/grogra/groimp/-/package_files/122392963/download",
                "libs" : {
                },
                "depends" : {
                    "de.grogra.pf":"2.1.3"
                }
            },
            "2.1.4" : {
                "downloadUrl" : "https://gitlab.com/grogra/groimp/-/package_files/150233562/download",
                "libs" : {
                },
                "depends" : {
                    "de.grogra.pf":"2.1.4"
                }
            },
            "2.1.5" : {
                "downloadUrl" : "https://gitlab.com/grogra/groimp/-/package_files/162582102/download",
                "libs" : {
                },
                "depends" : {
                    "de.grogra.pf":"2.1.5"
                }
            },
            "2.1.6" : {
                "downloadUrl" : "https://gitlab.com/grogra/groimp/-/package_files/175350229/download",
                "libs" : {
                },
                "depends" : {
                    "de.grogra.pf":"2.1.6"
                }
            }
        }
    }
]

